[
    [ "96937","Aurene's Rending", [
        ["100", "Mystic Runestone", "1 Gold 00 Silver 00 Copper", "100 Gold 00 Silver 00 Copper"],
        ["100", "Memory of Aurene", "54 Silver 01 Copper", "54 Gold 01 Silver 00 Copper"],
        ["1", "Bloodstone Shard", "0 Copper", "0 Copper"],
        ["100", "Antique Summoning Stone", "3 Gold 99 Silver 31 Copper", "399 Gold 31 Silver 00 Copper"],
        ["10", "Tale of Adventure", "32 Silver 35 Copper", "3 Gold 23 Silver 50 Copper"],
        ["10", "Lamplighter's Badge", "78 Silver 16 Copper", "7 Gold 81 Silver 60 Copper"],
        ["480", "Thermocatalytic Reagent", "1 Silver 49 Copper", "7 Gold 15 Silver 20 Copper"],
        ["600", "Hydrocatalytic Reagent", "0 Copper", "0 Copper"],
        ["1", "Gift of Glory", "0 Copper", "0 Copper"],
        ["1", "Gift of Battle", "0 Copper", "0 Copper"],
        ["1", "Gift of War", "0 Copper", "0 Copper"],
        ["7", "Blessing of the Jade Empress", "0 Copper", "0 Copper"],
        ["220", "Chunk of Pure Jade", "3 Silver 03 Copper", "6 Gold 66 Silver 60 Copper"],
        ["20", "Chunk of Petrified Echovald Resin", "4 Silver 30 Copper", "86 Silver 00 Copper"],
        ["134", "Glob of Ectoplasm", "12 Silver 39 Copper", "16 Gold 60 Silver 26 Copper"],
        ["1", "Eldritch Scroll", "0 Copper", "0 Copper"],
        ["10", "Amalgamated Gemstone", "61 Silver 18 Copper", "6 Gold 11 Silver 80 Copper"],
        ["100", "Jade Runestone", "33 Silver 29 Copper", "33 Gold 29 Silver 00 Copper"],
        ["100", "Chunk of Ancient Ambergris", "1 Gold 86 Silver 12 Copper", "186 Gold 12 Silver 00 Copper"],
        ["1", "Gift of Seitung Province", "0 Copper", "0 Copper"],
        ["1", "Gift of New Kaineng City", "0 Copper", "0 Copper"],
        ["1", "Gift of the Echovald Forest", "0 Copper", "0 Copper"],
        ["1", "Gift of Dragon's End", "0 Copper", "0 Copper"],
        ["116", "Obsidian Shard", "0 Copper", "0 Copper"],
        ["116", "Mystic Coin", "83 Silver 04 Copper", "96 Gold 32 Silver 64 Copper"],
        ["696", "Philosopher's Stone", "0 Copper", "0 Copper"],
        ["50", "Destroyer Lodestone", "52 Silver 01 Copper", "26 Gold 00 Silver 50 Copper"],
        ["50", "Crystal Lodestone", "18 Silver 86 Copper", "9 Gold 43 Silver 00 Copper"],
        ["50", "Corrupted Lodestone", "58 Silver 00 Copper", "29 Gold 00 Silver 00 Copper"],
        ["50", "Mordrem Lodestone", "76 Copper", "38 Silver 00 Copper"],
        ["115", "Pile of Crystalline Dust", "8 Silver 06 Copper", "9 Gold 26 Silver 90 Copper"],
        ["1", "Jug of Water", "9 Copper", "9 Copper"],
        ["1", "Ball of Dark Energy", "0 Copper", "0 Copper"],
        ["75", "Stabilizing Matrix", "28 Silver 00 Copper", "21 Gold 00 Silver 00 Copper"],
        ["100", "Vicious Claw", "13 Silver 02 Copper", "13 Gold 02 Silver 00 Copper"],
        ["250", "Large Claw", "32 Copper", "80 Silver 00 Copper"],
        ["50", "Sharp Claw", "4 Silver 57 Copper", "2 Gold 28 Silver 50 Copper"],
        ["50", "Claw", "2 Silver 45 Copper", "1 Gold 22 Silver 50 Copper"],
        ["100", "Armored Scale", "18 Silver 04 Copper", "18 Gold 04 Silver 00 Copper"],
        ["250", "Large Scale", "57 Copper", "1 Gold 42 Silver 50 Copper"],
        ["50", "Smooth Scale", "2 Silver 57 Copper", "1 Gold 28 Silver 50 Copper"],
        ["50", "Scale", "3 Silver 04 Copper", "1 Gold 52 Silver 00 Copper"],
        ["100", "Ancient Bone", "18 Silver 81 Copper", "18 Gold 81 Silver 00 Copper"],
        ["250", "Large Bone", "76 Copper", "1 Gold 90 Silver 00 Copper"],
        ["50", "Heavy Bone", "2 Silver 57 Copper", "1 Gold 28 Silver 50 Copper"],
        ["50", "Bone", "4 Silver 14 Copper", "2 Gold 07 Silver 00 Copper"],
        ["100", "Vicious Fang", "11 Silver 32 Copper", "11 Gold 32 Silver 00 Copper"],
        ["250", "Large Fang", "27 Copper", "67 Silver 50 Copper"],
        ["50", "Sharp Fang", "2 Silver 63 Copper", "1 Gold 31 Silver 50 Copper"],
        ["50", "Fang", "2 Silver 66 Copper", "1 Gold 33 Silver 00 Copper"],
        ["100", "Vial of Powerful Blood", "20 Silver 33 Copper", "20 Gold 33 Silver 00 Copper"],
        ["250", "Vial of Potent Blood", "82 Copper", "2 Gold 05 Silver 00 Copper"],
        ["50", "Vial of Thick Blood", "2 Silver 74 Copper", "1 Gold 37 Silver 00 Copper"],
        ["50", "Vial of Blood", "2 Silver 58 Copper", "1 Gold 29 Silver 00 Copper"],
        ["100", "Powerful Venom Sac", "11 Silver 61 Copper", "11 Gold 61 Silver 00 Copper"],
        ["250", "Potent Venom Sac", "29 Copper", "72 Silver 50 Copper"],
        ["50", "Full Venom Sac", "2 Silver 80 Copper", "1 Gold 40 Silver 00 Copper"],
        ["50", "Venom Sac", "2 Silver 46 Copper", "1 Gold 23 Silver 00 Copper"],
        ["100", "Elaborate Totem", "16 Silver 40 Copper", "16 Gold 40 Silver 00 Copper"],
        ["250", "Intricate Totem", "91 Copper", "2 Gold 27 Silver 50 Copper"],
        ["50", "Engraved Totem", "2 Silver 66 Copper", "1 Gold 33 Silver 00 Copper"],
        ["50", "Totem", "2 Silver 66 Copper", "1 Gold 33 Silver 00 Copper"],
        ["250", "Pile of Incandescent Dust", "71 Copper", "1 Gold 77 Silver 50 Copper"],
        ["50", "Pile of Luminous Dust", "2 Silver 53 Copper", "1 Gold 26 Silver 50 Copper"],
        ["50", "Pile of Radiant Dust", "4 Silver 05 Copper", "2 Gold 02 Silver 50 Copper"],
        ["2", "Gossamer Scrap", "62 Copper", "1 Silver 24 Copper"],
        ["540", "Iron Ore", "1 Silver 20 Copper", "6 Gold 48 Silver 00 Copper"],
        ["60", "Lump of Coal", "16 Copper", "9 Silver 60 Copper"],
        ["240", "Platinum Ore", "1 Silver 23 Copper", "2 Gold 95 Silver 20 Copper"],
        ["120", "Lump of Primordium", "47 Copper", "56 Silver 40 Copper"],
        ["3", "Ancient Wood Log", "1 Silver 31 Copper", "3 Silver 93 Copper"],
        ["5000", "Essence of Luck", "0 Copper", "0 Copper"],
        ["80", "Soft Wood Log", "10 Copper", "8 Silver 00 Copper"],
        ["60", "Seasoned Wood Log", "33 Copper", "19 Silver 80 Copper"],
        ["120", "Hard Wood Log", "89 Copper", "1 Gold 06 Silver 80 Copper"],
        ["600", "Mithril Ore", "23 Copper", "1 Gold 38 Silver 00 Copper"],
        ["300", "Elder Wood Log", "63 Copper", "1 Gold 89 Silver 00 Copper"]
    ]],
    [ "96203","Aurene's Claw", [
        ["100", "Mystic Runestone", "1 Gold 00 Silver 00 Copper", "100 Gold 00 Silver 00 Copper"],
        ["100", "Memory of Aurene", "53 Silver 84 Copper", "53 Gold 84 Silver 00 Copper"],
        ["1", "Bloodstone Shard", "0 Copper", "0 Copper"],
        ["100", "Antique Summoning Stone", "3 Gold 99 Silver 32 Copper", "399 Gold 32 Silver 00 Copper"],
        ["10", "Tale of Adventure", "32 Silver 36 Copper", "3 Gold 23 Silver 60 Copper"],
        ["10", "Lamplighter's Badge", "78 Silver 18 Copper", "7 Gold 81 Silver 80 Copper"],
        ["480", "Thermocatalytic Reagent", "1 Silver 49 Copper", "7 Gold 15 Silver 20 Copper"],
        ["600", "Hydrocatalytic Reagent", "0 Copper", "0 Copper"],
        ["1", "Gift of Glory", "0 Copper", "0 Copper"],
        ["1", "Gift of Battle", "0 Copper", "0 Copper"],
        ["1", "Gift of War", "0 Copper", "0 Copper"],
        ["7", "Blessing of the Jade Empress", "0 Copper", "0 Copper"],
        ["240", "Chunk of Pure Jade", "3 Silver 05 Copper", "7 Gold 32 Silver 00 Copper"],
        ["134", "Glob of Ectoplasm", "13 Silver 01 Copper", "17 Gold 43 Silver 34 Copper"],
        ["1", "Eldritch Scroll", "0 Copper", "0 Copper"],
        ["10", "Amalgamated Gemstone", "61 Silver 61 Copper", "6 Gold 16 Silver 10 Copper"],
        ["100", "Jade Runestone", "34 Silver 03 Copper", "34 Gold 03 Silver 00 Copper"],
        ["100", "Chunk of Ancient Ambergris", "1 Gold 86 Silver 16 Copper", "186 Gold 16 Silver 00 Copper"],
        ["1", "Gift of Seitung Province", "0 Copper", "0 Copper"],
        ["1", "Gift of New Kaineng City", "0 Copper", "0 Copper"],
        ["1", "Gift of the Echovald Forest", "0 Copper", "0 Copper"],
        ["1", "Gift of Dragon's End", "0 Copper", "0 Copper"],
        ["116", "Obsidian Shard", "0 Copper", "0 Copper"],
        ["116", "Mystic Coin", "83 Silver 11 Copper", "96 Gold 40 Silver 76 Copper"],
        ["696", "Philosopher's Stone", "0 Copper", "0 Copper"],
        ["50", "Destroyer Lodestone", "52 Silver 22 Copper", "26 Gold 11 Silver 00 Copper"],
        ["50", "Crystal Lodestone", "18 Silver 88 Copper", "9 Gold 44 Silver 00 Copper"],
        ["50", "Corrupted Lodestone", "53 Silver 21 Copper", "26 Gold 60 Silver 50 Copper"],
        ["50", "Mordrem Lodestone", "77 Copper", "38 Silver 50 Copper"],
        ["115", "Pile of Crystalline Dust", "8 Silver 20 Copper", "9 Gold 43 Silver 00 Copper"],
        ["1", "Jug of Water", "7 Copper", "7 Copper"],
        ["1", "Ball of Dark Energy", "0 Copper", "0 Copper"],
        ["75", "Stabilizing Matrix", "27 Silver 50 Copper", "20 Gold 62 Silver 50 Copper"],
        ["100", "Vicious Claw", "12 Silver 56 Copper", "12 Gold 56 Silver 00 Copper"],
        ["250", "Large Claw", "29 Copper", "72 Silver 50 Copper"],
        ["50", "Sharp Claw", "4 Silver 58 Copper", "2 Gold 29 Silver 00 Copper"],
        ["50", "Claw", "2 Silver 34 Copper", "1 Gold 17 Silver 00 Copper"],
        ["100", "Armored Scale", "18 Silver 09 Copper", "18 Gold 09 Silver 00 Copper"],
        ["250", "Large Scale", "60 Copper", "1 Gold 50 Silver 00 Copper"],
        ["50", "Smooth Scale", "2 Silver 81 Copper", "1 Gold 40 Silver 50 Copper"],
        ["50", "Scale", "3 Silver 01 Copper", "1 Gold 50 Silver 50 Copper"],
        ["100", "Ancient Bone", "18 Silver 46 Copper", "18 Gold 46 Silver 00 Copper"],
        ["250", "Large Bone", "73 Copper", "1 Gold 82 Silver 50 Copper"],
        ["50", "Heavy Bone", "2 Silver 65 Copper", "1 Gold 32 Silver 50 Copper"],
        ["50", "Bone", "4 Silver 13 Copper", "2 Gold 06 Silver 50 Copper"],
        ["100", "Vicious Fang", "11 Silver 01 Copper", "11 Gold 01 Silver 00 Copper"],
        ["250", "Large Fang", "28 Copper", "70 Silver 00 Copper"],
        ["50", "Sharp Fang", "2 Silver 67 Copper", "1 Gold 33 Silver 50 Copper"],
        ["50", "Fang", "2 Silver 56 Copper", "1 Gold 28 Silver 00 Copper"],
        ["100", "Vial of Powerful Blood", "20 Silver 16 Copper", "20 Gold 16 Silver 00 Copper"],
        ["250", "Vial of Potent Blood", "85 Copper", "2 Gold 12 Silver 50 Copper"],
        ["50", "Vial of Thick Blood", "2 Silver 76 Copper", "1 Gold 38 Silver 00 Copper"],
        ["50", "Vial of Blood", "2 Silver 40 Copper", "1 Gold 20 Silver 00 Copper"],
        ["100", "Powerful Venom Sac", "11 Silver 86 Copper", "11 Gold 86 Silver 00 Copper"],
        ["250", "Potent Venom Sac", "26 Copper", "65 Silver 00 Copper"],
        ["50", "Full Venom Sac", "2 Silver 86 Copper", "1 Gold 43 Silver 00 Copper"],
        ["50", "Venom Sac", "2 Silver 36 Copper", "1 Gold 18 Silver 00 Copper"],
        ["100", "Elaborate Totem", "16 Silver 66 Copper", "16 Gold 66 Silver 00 Copper"],
        ["250", "Intricate Totem", "90 Copper", "2 Gold 25 Silver 00 Copper"],
        ["50", "Engraved Totem", "2 Silver 74 Copper", "1 Gold 37 Silver 00 Copper"],
        ["50", "Totem", "2 Silver 52 Copper", "1 Gold 26 Silver 00 Copper"],
        ["250", "Pile of Incandescent Dust", "68 Copper", "1 Gold 70 Silver 00 Copper"],
        ["50", "Pile of Luminous Dust", "2 Silver 60 Copper", "1 Gold 30 Silver 00 Copper"],
        ["50", "Pile of Radiant Dust", "3 Silver 97 Copper", "1 Gold 98 Silver 50 Copper"],
        ["2", "Gossamer Scrap", "69 Copper", "1 Silver 38 Copper"],
        ["720", "Iron Ore", "1 Silver 19 Copper", "8 Gold 56 Silver 80 Copper"],
        ["80", "Lump of Coal", "15 Copper", "12 Silver 00 Copper"],
        ["320", "Platinum Ore", "1 Silver 22 Copper", "3 Gold 90 Silver 40 Copper"],
        ["160", "Lump of Primordium", "46 Copper", "73 Silver 60 Copper"],
        ["3", "Ancient Wood Log", "1 Silver 31 Copper", "3 Silver 93 Copper"],
        ["5000", "Essence of Luck", "0 Copper", "0 Copper"],
        ["800", "Mithril Ore", "23 Copper", "1 Gold 84 Silver 00 Copper"]
    ]],
    [ "97377","Aurene's Persuasion", [
        ["100", "Mystic Runestone", "1 Gold 00 Silver 00 Copper", "100 Gold 00 Silver 00 Copper"],
        ["100", "Memory of Aurene", "53 Silver 84 Copper", "53 Gold 84 Silver 00 Copper"],
        ["1", "Bloodstone Shard", "0 Copper", "0 Copper"],
        ["100", "Antique Summoning Stone", "3 Gold 99 Silver 32 Copper", "399 Gold 32 Silver 00 Copper"],
        ["10", "Tale of Adventure", "32 Silver 36 Copper", "3 Gold 23 Silver 60 Copper"],
        ["10", "Lamplighter's Badge", "78 Silver 18 Copper", "7 Gold 81 Silver 80 Copper"],
        ["490", "Thermocatalytic Reagent", "1 Silver 49 Copper", "7 Gold 30 Silver 10 Copper"],
        ["600", "Hydrocatalytic Reagent", "0 Copper", "0 Copper"],
        ["1", "Gift of Glory", "0 Copper", "0 Copper"],
        ["1", "Gift of Battle", "0 Copper", "0 Copper"],
        ["1", "Gift of War", "0 Copper", "0 Copper"],
        ["7", "Blessing of the Jade Empress", "0 Copper", "0 Copper"],
        ["220", "Chunk of Pure Jade", "3 Silver 05 Copper", "6 Gold 71 Silver 00 Copper"],
        ["20", "Chunk of Petrified Echovald Resin", "4 Silver 12 Copper", "82 Silver 40 Copper"],
        ["135", "Glob of Ectoplasm", "13 Silver 01 Copper", "17 Gold 56 Silver 35 Copper"],
        ["1", "Eldritch Scroll", "0 Copper", "0 Copper"],
        ["10", "Amalgamated Gemstone", "61 Silver 61 Copper", "6 Gold 16 Silver 10 Copper"],
        ["100", "Jade Runestone", "34 Silver 03 Copper", "34 Gold 03 Silver 00 Copper"],
        ["100", "Chunk of Ancient Ambergris", "1 Gold 86 Silver 16 Copper", "186 Gold 16 Silver 00 Copper"],
        ["1", "Gift of Seitung Province", "0 Copper", "0 Copper"],
        ["1", "Gift of New Kaineng City", "0 Copper", "0 Copper"],
        ["1", "Gift of the Echovald Forest", "0 Copper", "0 Copper"],
        ["1", "Gift of Dragon's End", "0 Copper", "0 Copper"],
        ["116", "Obsidian Shard", "0 Copper", "0 Copper"],
        ["116", "Mystic Coin", "83 Silver 11 Copper", "96 Gold 40 Silver 76 Copper"],
        ["696", "Philosopher's Stone", "0 Copper", "0 Copper"],
        ["50", "Destroyer Lodestone", "52 Silver 22 Copper", "26 Gold 11 Silver 00 Copper"],
        ["50", "Crystal Lodestone", "18 Silver 88 Copper", "9 Gold 44 Silver 00 Copper"],
        ["50", "Corrupted Lodestone", "53 Silver 21 Copper", "26 Gold 60 Silver 50 Copper"],
        ["50", "Mordrem Lodestone", "77 Copper", "38 Silver 50 Copper"],
        ["115", "Pile of Crystalline Dust", "8 Silver 20 Copper", "9 Gold 43 Silver 00 Copper"],
        ["1", "Jug of Water", "7 Copper", "7 Copper"],
        ["1", "Ball of Dark Energy", "0 Copper", "0 Copper"],
        ["75", "Stabilizing Matrix", "27 Silver 50 Copper", "20 Gold 62 Silver 50 Copper"],
        ["100", "Vicious Claw", "12 Silver 58 Copper", "12 Gold 58 Silver 00 Copper"],
        ["250", "Large Claw", "29 Copper", "72 Silver 50 Copper"],
        ["50", "Sharp Claw", "4 Silver 59 Copper", "2 Gold 29 Silver 50 Copper"],
        ["50", "Claw", "2 Silver 34 Copper", "1 Gold 17 Silver 00 Copper"],
        ["100", "Armored Scale", "18 Silver 09 Copper", "18 Gold 09 Silver 00 Copper"],
        ["250", "Large Scale", "60 Copper", "1 Gold 50 Silver 00 Copper"],
        ["50", "Smooth Scale", "2 Silver 81 Copper", "1 Gold 40 Silver 50 Copper"],
        ["50", "Scale", "3 Silver 01 Copper", "1 Gold 50 Silver 50 Copper"],
        ["100", "Ancient Bone", "18 Silver 48 Copper", "18 Gold 48 Silver 00 Copper"],
        ["250", "Large Bone", "73 Copper", "1 Gold 82 Silver 50 Copper"],
        ["50", "Heavy Bone", "2 Silver 66 Copper", "1 Gold 33 Silver 00 Copper"],
        ["50", "Bone", "4 Silver 13 Copper", "2 Gold 06 Silver 50 Copper"],
        ["100", "Vicious Fang", "11 Silver 02 Copper", "11 Gold 02 Silver 00 Copper"],
        ["250", "Large Fang", "28 Copper", "70 Silver 00 Copper"],
        ["50", "Sharp Fang", "2 Silver 67 Copper", "1 Gold 33 Silver 50 Copper"],
        ["50", "Fang", "2 Silver 56 Copper", "1 Gold 28 Silver 00 Copper"],
        ["100", "Vial of Powerful Blood", "20 Silver 16 Copper", "20 Gold 16 Silver 00 Copper"],
        ["250", "Vial of Potent Blood", "85 Copper", "2 Gold 12 Silver 50 Copper"],
        ["50", "Vial of Thick Blood", "2 Silver 76 Copper", "1 Gold 38 Silver 00 Copper"],
        ["50", "Vial of Blood", "2 Silver 40 Copper", "1 Gold 20 Silver 00 Copper"],
        ["100", "Powerful Venom Sac", "11 Silver 84 Copper", "11 Gold 84 Silver 00 Copper"],
        ["250", "Potent Venom Sac", "26 Copper", "65 Silver 00 Copper"],
        ["50", "Full Venom Sac", "2 Silver 86 Copper", "1 Gold 43 Silver 00 Copper"],
        ["50", "Venom Sac", "2 Silver 35 Copper", "1 Gold 17 Silver 50 Copper"],
        ["100", "Elaborate Totem", "16 Silver 67 Copper", "16 Gold 67 Silver 00 Copper"],
        ["250", "Intricate Totem", "89 Copper", "2 Gold 22 Silver 50 Copper"],
        ["50", "Engraved Totem", "2 Silver 74 Copper", "1 Gold 37 Silver 00 Copper"],
        ["50", "Totem", "2 Silver 52 Copper", "1 Gold 26 Silver 00 Copper"],
        ["250", "Pile of Incandescent Dust", "68 Copper", "1 Gold 70 Silver 00 Copper"],
        ["50", "Pile of Luminous Dust", "2 Silver 60 Copper", "1 Gold 30 Silver 00 Copper"],
        ["50", "Pile of Radiant Dust", "3 Silver 97 Copper", "1 Gold 98 Silver 50 Copper"],
        ["2", "Gossamer Scrap", "69 Copper", "1 Silver 38 Copper"],
        ["540", "Iron Ore", "1 Silver 19 Copper", "6 Gold 42 Silver 60 Copper"],
        ["60", "Lump of Coal", "15 Copper", "9 Silver 00 Copper"],
        ["240", "Platinum Ore", "1 Silver 22 Copper", "2 Gold 92 Silver 80 Copper"],
        ["120", "Lump of Primordium", "46 Copper", "55 Silver 20 Copper"],
        ["3", "Ancient Wood Log", "1 Silver 31 Copper", "3 Silver 93 Copper"],
        ["5000", "Essence of Luck", "0 Copper", "0 Copper"],
        ["120", "Soft Wood Log", "10 Copper", "12 Silver 00 Copper"],
        ["90", "Seasoned Wood Log", "35 Copper", "31 Silver 50 Copper"],
        ["180", "Hard Wood Log", "89 Copper", "1 Gold 60 Silver 20 Copper"],
        ["600", "Mithril Ore", "23 Copper", "1 Gold 38 Silver 00 Copper"],
        ["450", "Elder Wood Log", "65 Copper", "2 Gold 92 Silver 50 Copper"]
    ]],
    [ "90551","Exordium", [
        ["484", "Mystic Coin", "83 Silver 11 Copper", "402 Gold 25 Silver 24 Copper"],
        ["100", "Mystic Runestone", "1 Gold 00 Silver 00 Copper", "100 Gold 00 Silver 00 Copper"],
        ["1", "Bloodstone Shard", "0 Copper", "0 Copper"],
        ["200", "Tribute to the Exitare", "0 Copper", "0 Copper"],
        ["215", "Pile of Crystalline Dust", "8 Silver 20 Copper", "17 Gold 63 Silver 00 Copper"],
        ["410", "Thermocatalytic Reagent", "1 Silver 49 Copper", "6 Gold 10 Silver 90 Copper"],
        ["514", "Obsidian Shard", "0 Copper", "0 Copper"],
        ["510", "Glob of Ectoplasm", "13 Silver 01 Copper", "66 Gold 35 Silver 10 Copper"],
        ["1404", "Philosopher's Stone", "0 Copper", "0 Copper"],
        ["1", "Gift of Glory", "0 Copper", "0 Copper"],
        ["1", "Gift of Battle", "0 Copper", "0 Copper"],
        ["1", "Gift of War", "0 Copper", "0 Copper"],
        ["1", "Gift of the Fleet", "0 Copper", "0 Copper"],
        ["1", "Gift of Tarir", "0 Copper", "0 Copper"],
        ["1", "Gift of the Chak", "0 Copper", "0 Copper"],
        ["1", "Gift of the Jungle", "0 Copper", "0 Copper"],
        ["1", "Gift of the Itzel", "0 Copper", "0 Copper"],
        ["1", "Gift of the Nuhoch", "0 Copper", "0 Copper"],
        ["1", "Gift of the Exalted", "0 Copper", "0 Copper"],
        ["1", "Gift of Gliding", "0 Copper", "0 Copper"],
        ["250", "Crystalline Ore", "0 Copper", "0 Copper"],
        ["250", "Amalgamated Gemstone", "61 Silver 61 Copper", "154 Gold 02 Silver 50 Copper"],
        ["7500", "Potent Venom Sac", "26 Copper", "19 Gold 50 Silver 00 Copper"],
        ["23100", "Mithril Ore", "23 Copper", "53 Gold 13 Silver 00 Copper"],
        ["24000", "Elder Wood Log", "65 Copper", "156 Gold 00 Silver 00 Copper"],
        ["1", "Augur's Stone", "0 Copper", "0 Copper"],
        ["200", "Vial of Powerful Blood", "20 Silver 16 Copper", "40 Gold 32 Silver 00 Copper"],
        ["500", "Vial of Potent Blood", "85 Copper", "4 Gold 25 Silver 00 Copper"],
        ["100", "Vial of Thick Blood", "2 Silver 76 Copper", "2 Gold 76 Silver 00 Copper"],
        ["100", "Vial of Blood", "2 Silver 40 Copper", "2 Gold 40 Silver 00 Copper"],
        ["200", "Powerful Venom Sac", "11 Silver 84 Copper", "23 Gold 68 Silver 00 Copper"],
        ["100", "Full Venom Sac", "2 Silver 86 Copper", "2 Gold 86 Silver 00 Copper"],
        ["100", "Venom Sac", "2 Silver 35 Copper", "2 Gold 35 Silver 00 Copper"],
        ["200", "Elaborate Totem", "16 Silver 67 Copper", "33 Gold 34 Silver 00 Copper"],
        ["500", "Intricate Totem", "89 Copper", "4 Gold 45 Silver 00 Copper"],
        ["100", "Engraved Totem", "2 Silver 74 Copper", "2 Gold 74 Silver 00 Copper"],
        ["100", "Totem", "2 Silver 52 Copper", "2 Gold 52 Silver 00 Copper"],
        ["500", "Pile of Incandescent Dust", "68 Copper", "3 Gold 40 Silver 00 Copper"],
        ["100", "Pile of Luminous Dust", "2 Silver 60 Copper", "2 Gold 60 Silver 00 Copper"],
        ["100", "Pile of Radiant Dust", "3 Silver 97 Copper", "3 Gold 97 Silver 00 Copper"],
        ["200", "Vicious Claw", "12 Silver 58 Copper", "25 Gold 16 Silver 00 Copper"],
        ["500", "Large Claw", "29 Copper", "1 Gold 45 Silver 00 Copper"],
        ["100", "Sharp Claw", "4 Silver 59 Copper", "4 Gold 59 Silver 00 Copper"],
        ["100", "Claw", "2 Silver 34 Copper", "2 Gold 34 Silver 00 Copper"],
        ["200", "Armored Scale", "18 Silver 09 Copper", "36 Gold 18 Silver 00 Copper"],
        ["500", "Large Scale", "60 Copper", "3 Gold 00 Silver 00 Copper"],
        ["100", "Smooth Scale", "2 Silver 81 Copper", "2 Gold 81 Silver 00 Copper"],
        ["100", "Scale", "3 Silver 01 Copper", "3 Gold 01 Silver 00 Copper"],
        ["200", "Ancient Bone", "18 Silver 48 Copper", "36 Gold 96 Silver 00 Copper"],
        ["500", "Large Bone", "73 Copper", "3 Gold 65 Silver 00 Copper"],
        ["100", "Heavy Bone", "2 Silver 66 Copper", "2 Gold 66 Silver 00 Copper"],
        ["100", "Bone", "4 Silver 13 Copper", "4 Gold 13 Silver 00 Copper"],
        ["200", "Vicious Fang", "11 Silver 02 Copper", "22 Gold 04 Silver 00 Copper"],
        ["500", "Large Fang", "27 Copper", "1 Gold 35 Silver 00 Copper"],
        ["100", "Sharp Fang", "2 Silver 67 Copper", "2 Gold 67 Silver 00 Copper"],
        ["100", "Fang", "2 Silver 56 Copper", "2 Gold 56 Silver 00 Copper"],
        ["1", "Ball of Dark Energy", "0 Copper", "0 Copper"],
        ["75", "Stabilizing Matrix", "27 Silver 50 Copper", "20 Gold 62 Silver 50 Copper"],
        ["506", "Orichalcum Ore", "2 Silver 28 Copper", "11 Gold 53 Silver 68 Copper"],
        ["1240", "Platinum Ore", "1 Silver 22 Copper", "15 Gold 12 Silver 80 Copper"],
        ["370", "Lump of Primordium", "46 Copper", "1 Gold 70 Silver 20 Copper"],
        ["250", "Bottle of Airship Oil", "0 Copper", "0 Copper"],
        ["250", "Pile of Auric Dust", "0 Copper", "0 Copper"],
        ["250", "Ley Line Spark", "0 Copper", "0 Copper"],
        ["500", "Pile of Bloodstone Dust", "0 Copper", "0 Copper"],
        ["500", "Dragonite Ore", "0 Copper", "0 Copper"],
        ["500", "Empyreal Fragment", "0 Copper", "0 Copper"],
        ["540", "Iron Ore", "1 Silver 19 Copper", "6 Gold 42 Silver 60 Copper"],
        ["60", "Lump of Coal", "15 Copper", "9 Silver 00 Copper"],
        ["6", "Ancient Wood Log", "1 Silver 31 Copper", "7 Silver 86 Copper"],
        ["400", "Thin Leather Section", "50 Copper", "2 Gold 00 Silver 00 Copper"],
        ["200", "Coarse Leather Section", "65 Copper", "1 Gold 30 Silver 00 Copper"],
        ["400", "Rugged Leather Section", "2 Silver 19 Copper", "8 Gold 76 Silver 00 Copper"],
        ["2000", "Thick Leather Section", "51 Copper", "10 Gold 20 Silver 00 Copper"]
    ]]
]