[
    ["Gen3","Aurene's Argument","Pistol"],
    ["Gen3","Aurene's Bite","Greatsword"],
    ["Gen3","Aurene's Breath","Torch"],
    ["Gen3","Aurene's Claw","Dagger"],
    ["Gen3","Aurene's Fang","Sword"],
    ["Gen3","Aurene's Flight","Longbow"],
    ["Gen3","Aurene's Gaze","Focus"],
    ["Gen3","Aurene's Insight","Staff"],
    ["Gen3","Aurene's Persuasion","Rifle"],
    ["Gen3","Aurene's Rending","Axe"],
    ["Gen3","Aurene's Scale","Shield"],
    ["Gen3","Aurene's Tail","Mace"],
    ["Gen3","Aurene's Voice","Warhorn"],
    ["Gen3","Aurene's Weight","Hammer"],
    ["Gen3","Aurene's Wing","Short"],
    ["Gen3","Aurene's Wisdom","Scepter"],
    ["Gen2","Astralaria","Axe"],
    ["Gen2","Claw of the Khan-Ur","Dagger"],
    ["Gen2","Eureka","Mace"],
    ["Gen2","HOPE","Pistol"],
    ["Gen2","Xiuquatl","Scepter"],
    ["Gen2","The Shining Blade","Sword"],
    ["Gen2","The Binding of Ipos","Focus"],
    ["Gen2","Shooshadoo","Shield"],
    ["Gen2","Flames of War","Torch"],
    ["Gen2","Verdarach","Warhorn"],
    ["Gen2","Exordium","Greatsword"],
    ["Gen2","Sharur","Hammer"],
    ["Gen2","Pharus","Longbow"],
    ["Gen2","The HMS Divinity","Rifle"],
    ["Gen2","Chuka and Champawat","Short bow"],
    ["Gen2","Nevermore","Staff"],
    ["Gen1","Frostfang","Axe"],
    ["Gen1","Incinerator","Dagger"],
    ["Gen1","The Moot","Mace"],
    ["Gen1","Quip","Pistol"],
    ["Gen1","Meteorlogicus","Scepter"],
    ["Gen1","Bolt","Sword"],
    ["Gen1","The Minstrel","Focus"],
    ["Gen1","The Flameseeker Prophecies","Shield"],
    ["Gen1","Rodgort","Torch"],
    ["Gen1","Howler","Warhorn"],
    ["Gen1","Sunrise","Greatsword"],
    ["Gen1","Twilight","Greatsword"],
    ["Gen1","Eternity","Greatsword"],
    ["Gen1","The Juggernaut","Hammer"],
    ["Gen1","Kudzu","Longbow"],
    ["Gen1","The Predator","Rifle"],
    ["Gen1","The Dreamer","Short bow"],
    ["Gen1","The Bifrost","Staff"],
    ["Gen1","Frenzy","Harpoon gun"],
    ["Gen1","Kamohoali'i Kotaki","Spear"],
    ["Gen1","Kraitkin","Trident"]
]