[
    ["96925","Dragon's Breath"],
    ["96330","Dragon's Wing"],
    ["95814","Dragon's Insight"],
    ["97513","Dragon's Voice"],
    ["97691","Dragon's Scale"],
    ["97267","Dragon's Persuasion"],
    ["97449","Dragon's Rending"],
    ["96827","Dragon's Tail"],
    ["96915","Dragon's Argument"],
    ["95967","Dragon's Claw"],
    ["95834","Dragon's Flight"],
    ["95994","Dragon's Fang"],
    ["96303","Dragon's Gaze"],
    ["96357","Dragon's Bite"],
    ["96193","Dragon's Wisdom"],
    ["95920","Dragon's Weight"],
    ["29185","Dusk"],
    ["29171","Carcharias"],
    ["29179","Rage"],
    ["71426","The Mechanism"],
    ["78425","Tigris"],
    ["79570","Endeavor"],
    ["80135","Man o' War"],
    ["76399","Prototype"],
    ["74068","The Raven Staff"],
    ["79836","Friendship"],
    ["81022","Liturgy"],
    ["81634","Might of Arah"],
    ["81812","Save the Queen"],
    ["86097","Ars Goetia"],
    ["87037","Claw of Resolution"],
    ["87764","Call of the Void"],
    ["88851","Tlehco"],
    ["89886","Spero"],
    ["90883","Exitare"],
    ["29183","Venom"],
    ["29167","Spark"],
    ["29177","The Chosen"],
    ["29184","Howl"],
    ["29175","The Hunter"],
    ["29182","Rodgort's Flame"],
    ["29181","Zap"],
    ["29176","Storm"],
    ["29174","Chaos Gun"],
    ["29166","Tooth of Frostfang"],
    ["29168","The Bard"],
    ["29180","The Legend"],
    ["29173","The Energizer"],
    ["29169","Dawn"],
    ["29170","The Colossus"],
    ["29172","Leaf of Kudzu"],
    ["29178","The Lover"]
]