[
    {"name": "brakhage", "acct": "brakhage.4712", "api": "3B2DA319-A896-0942-A8EF-280808562B038F7BACA1-CB51-400A-B00B-8C7158206905","characters": [ "Goth Brak", "Cupid Car Club", "Jeremy Pàrker", "Us Against Whatever", "Crunchbang Bin Bash", "Jeremy Darker", "Crunch Bang Bash", "Sparkletastic", "Jeremy Parker", "Supersonic Squee", "Keri Uchesiv", "Crunch Bang Bin Zsh", "Grape Juíce Plus", "Jerèmy Parker", "Moist Rainbow", "Crunchbang Slashbin"]},
    {"name": "c2lknt", "acct": "Metal Swing.5670", "api": "60D79C75-AD4A-F74E-B044-E0D37A4149C84D5C0ACF-D9E7-49F4-A7AD-89F08F089786","characters": [ "Flame Nine", "Metal Kyra", "Cathode Melt", "Brendan Number One", "Magnet Understander", "Grape Juice Plus", "Blue Fire Nine"]},
    {"name": "frumps", "acct": "frumps.1367", "api": "23F88DF5-BC8B-EC41-A848-960A55904DB6A0FAB4E3-3A2E-486C-B6FC-6DDA04A15ADE","characters": [ "Shift Three One", "Shift Nine Zero", "Shift Eleven", "N Ninety Five", "Shift Eight"]},
    {"name": "nroto", "acct": "nroto.3168", "api": "142CB8B8-2DE4-6840-8709-E59AB9064DB0E68B2F20-0C64-4ECD-8F99-7420CA4925B0","characters": [ "Gnat Turner", "Fire Nine", "Crunch Bang Slash", "Crunch Bang Smash", "Cathode Drift"]},
    {"name": "jparker", "acct": "jparker.9307", "api": "1BAA688A-1661-2A4B-AC34-E873BA875F7E39AE4D61-241B-4251-BC44-392CF0E51AF0","characters": [ "A Nice Young Man", "Seven Nines", "Crunchbang Sneak", "B A S F Ace", "Unironic Roxbury"]},
    {"name": "caulknot1", "acct": "caulknot.2169", "api": "1BCE10BE-6760-AA49-9269-6921AD52009BF301B8AA-63D9-4447-878D-9E4AE1089724","characters": [ "Eighty Two Cruisin", "Blazing Star Nine", "Nine Sevens", "Caulk Knot", "Nineteen Eighty One"]},
    {"name": "caulknot2", "acct": "caulknot.7964", "api": "0CF79228-3BE4-414E-B6CF-F0541BB611941C2F1007-B750-486D-ADDD-EE2690B40EED","characters": [ "Subsonic Squee", "Caul Knot"]},
    {"name": "caulknot3", "acct": "caulknot.1850", "api": "3E18FA5D-841F-B04E-A6D9-DE45880AC4A97AF2405B-558E-4565-9DA6-1E0D89D4702E","characters": [ "March Seventeenth", "Caulk Not", "Page Three Charr"]},
    {"name": "caulknot4", "acct": "caulknot.3456", "api": "E97A9A77-CA67-E445-B491-27571BA71D26E4703D06-B47A-4837-BAA8-A1EFEE432409","characters": [ "Johnny Stomp", "Caulk Knoot"]},
    {"name": "caulknot5", "acct": "caulknot.4056", "api": "1A61B89A-C8C6-9440-B5EE-2ACB507B106F783DF760-4DB8-436F-BEE6-8757CDE60A07","characters": [ "Eleven Tigers", "Caulk Noot"]}
]
