[

    {"name": "caulknot5", "acct": "caulknot.4056", "api": "1A61B89A-C8C6-9440-B5EE-2ACB507B106F783DF760-4DB8-436F-BEE6-8757CDE60A07","characters": [ "Eleven Tigers", "Caulk Noot"]},
    {"name": "caulknot4", "acct": "caulknot.3456", "api": "E97A9A77-CA67-E445-B491-27571BA71D26E4703D06-B47A-4837-BAA8-A1EFEE432409","characters": [ "Johnny Stomp", "Caulk Knoot"]}
]
